[
  {
    "description": "Bump aws-cli -> 1.18.188.",
    "type": "minor"
  },
  {
    "description": "Support AWS OIDC authentication. Environment variables AWS_ACCESS_KEY_ID, AWS_SECRET_ACCESS_KEY are not required anymore.",
    "type": "minor"
  }
]