[
  {
    "description": "Migrate aws-cli to v2. Contains breaking changes https://docs.aws.amazon.com/cli/latest/userguide/cliv2-migration.html. Pipe based on docker image amazon/aws-cli:2.2.13.",
    "type": "major"
  }
]
